[
  {
    "id": 1,
    "title": "ՀԱՅԱՍՏԱՆ",
    "text": "Հայկական եկեղեցին հավատարիմ է մնացել հին կարգին եւ Քրիստոսի ծննդյան օրը նշում է հունվարի 6-ին: Այդ օրը Հայ եկեղեցին նշում է նաեւ Քրիստոսի մկրտության օրը: Սուրբ Ծննդյան նախօրեին երեկոյան մատուցվում է պատարագ, որը կոչվում է ճրագալույցի պատարագ: Այդ օրը հավատացյալները մոմ են վառում եկեղեցում եւ այն իրենց հետ տանում տուն` այն լուսավորելու եւ Սուրբ Ծննդյան տոնին նախապատրաստվելու համար: Հաջորդ օրը` հունվարի 6-ի առավոտյան մատուցվում է Սուրբ Ծննդյան պատարագ: Որին հաջորդում է Քրիստոսի մկրտության  արարողությունը եւ ջրի օծումը: Ավանդաբար այս օրը հայկական ընտանիքների սեղանին մատուցվում է բրնձով, չամիչով փլավ, ձուկ եւ կարմիր գինի:",
    "imageName": "armenia"
  },
  {
    "id": 2,
    "title": "ԱՎՍՏՐԱԼԻԱ",
    "text": "Ավստրալիայում երազում են «ճերմակ» Սուրբ ծնունդի մասին։ Շոգ եղանակի պատճառով այստեղ Սուրբ ծնունդն ամառային տարբերակով են նշում։ Փոխարենը Սուրբ ծննդյան բացիկների վրա ձմեռային գեղեցիկ տեսարաններ են։ Սուրբ ծնունդի օրն այստեղ երեխաները լողում են, ավազե ամրոցներ սարքում, իսկ ամենատարածված նվերը լողափի սրբիչն է։ Այստեղ նոյեմբերի կեսին տեղի է ունենում Սուրբ ծնունդի շրջանի բացումը, որի կապակցությամբ տոնական շքերթ է տեղի ունենում։",
    "imageName": "australia"
  },
  {
    "id": 3,
    "title": "ԳԵՐՄԱՆԻԱ",
    "text": "Սուրբ ծնունդին տոնածառ զարդարելու ավանդույթը եկել է Գերմանիայից։ Այստեղ, ըստ հին ավանդության, 11-րդ ամսվա 11-ին, ժամ 11անց 11 րոպեին Գերմանիայում սկսվում է Սուրբ Ծննդյան տոնակատարությունը, որը հայտնի է որպես «տարվա հինգերորդ եղանակ»: Քաղաքների հրապարակներում կազմակերպվում են տոնավաճառներ, որտեղ հավաքվում են հազարավոր մարդիկ: Նրանք գրկախառնվում են, խմում են տաք գլինտվեյն, պարում են եւ երգում: Գերմանիայում ընդունված է նվիրել «Սուրբ Ծննդյան աստղ»: Հարյուր տարի առաջ այս բույսը բերվել է Մեքսիկայից. Ռուսաստանում այն կոչվում է իշկաթնուկ: Ճիշտ խնամքի դեպքում Սուրբ Ծնունդին կանաչ թփի վրա գունագեղվում է վառ կարմիր կամ վարդագույն պսակիկը, որը հիշեցնում է աստղ: Նվիրում են նաեւ երեքնուկ խեցամանի մեջ` ի նշան երջանկության:Գերմանիայում Սուրբ ծնունդը նշում են ընտանիքի հետ եւ նվերներով փոխանակվում։",
    "imageName": "germany"
  },
  {
    "id": 4,
    "title": "ԱՄԵՐԻԿԱ",
    "text": "ԱՄՆ-ում Սուրբ ծնունդն ավելի կարեւոր տոն է, քան Ամանորը։ Սուրբ ծնունդն այստեղ տոնում են դեկտեմբերի 25-ին։ Այս օրերին ԱՄՆ-ի տներն ու փողոցները զարդարվում են Սուրբ ծնունդը խորհրդանշող զարդերով, լույսերով, Սանտա-Կլաուսը շրջում է փողոցներով ու տներով, երեխաներին նվերներ բաժանում։ ԱՄՆ-ի Սուրբ ծննդյան տոնական սեղանի անբաժանելի մասը տապակած հնդկահավն է։",
    "imageName": "us"
  },
  {
    "id": 5,
    "title": "ՀՈՒՆԱՍՏԱՆ",
    "text": "Չնայած Հունաստանն ուղղափառ երկիր է, սակայն Սուրբ Ծնունդը նշում է արեւմտյան աշխարհի հետ միասին` դեկտեմբերի 25-ին: Այն նշվում է յուրաքանչյուր ընտանիքում, ընտանեկան շրջանակներում: Զարդարվում է տոնածառը, տոնական սեղանին դնում են զանազան մրգեր, ընկույզ, թուզ, չամիչ, եւ այլն: Իսկ գլխավոր տեղը սեղանին հատկացվում է հնդկահավին: Սովորաբար Սուրբ Ծնունդին այստեղ միմյանց նվիրում են հագուստ, գրքեր, կենցաղային իրեր, պարզապես ծրարով գումար, եւ իհարկե խաղալիքներ երեխաների համար:",
    "imageName": "greece"
  },
  {
    "id": 6,
    "title": "ՃԱՊՈՆԻԱ",
    "text": "Ճապոնիայում, ըստ ավանդույթի, Ամանորից առաջ միմյանց նվիրում են բացիկներ այն կենդանու պատկերով, որի տարին է լինելու: Սակայն ճապոնական տան հիմնական զարդարանքը «կադոմացու»-ն է (ելքի մոտի սոճի): «Կադոմացու»-ն յուրօրինակ ողջույն է Նոր տարվա սրբին: Սովորաբար այն պատրաստում են սոճուց, բամբուկից եւ բրնձի հյուսված ցողուններից:",
    "imageName": "japan"
  },
  {
    "id": 7,
    "title": "ՇՎԵԴԻԱ",
    "text": "Շվեդներն ավանդաբար միմյանց նվիրում են մոմեր: Այդ նվերը պայմանավորված է նրանով, որ ձմռանը բեւեռային շրջանում շուտ է մթնում, իսկ լույսը ընկերության, բարյացակամության եւ ուրախության խորհրդանիշն է: Շվեդական տներում Ամանորի տոնակատարությունը սկսվում է նրանից, որ հայրիկները տնից դուրս են բերում աղբը, իսկ վերադառնում են Յուլ Տոմտենի` Ձմեռ Պապի կերպարանքով: Երբ ժամացույցը սկսում է ազդարարել կեսգիշերը, բոլորը սկսում են շվիներով աղմկել, իսկ Յուլ Տոմտենը` նվերներ բաժանել: Այդպիսի աղմուկ-աղաղակի պայմաններում է Նոր տարին մուտք  գործում Շվեդիա:",
    "imageName": "sweden"
  }
]
